01-cleaning
…
Rows: 3535 Columns: 14
── Column specification ────────────────────────────────────────────────────────
Delimiter: ","
chr  (7): bill_number, status_desc, title, description, last_action, url, st...
dbl  (4): bill_id, session_id, status, committee_id
lgl  (1): committee
date (2): status_date, last_action_date

ℹ Use `spec()` to retrieve the full column specification for this data.
ℹ Specify the column types or set `show_col_types = FALSE` to quiet this message.

bills

# A tibble: 3,535 × 14
   bill_id session_id bill_number status status_desc status_date title          
     <dbl>      <dbl> <chr>        <dbl> <chr>       <date>      <chr>          
 1 1934188       2160 HB1              1 Introduced  2025-01-22  General Approp…
 2 1898804       2160 HB20             1 Introduced  2024-12-23  Relating to es…
 3 1915953       2160 HB21             1 Introduced  2025-01-13  Relating to ho…
 4 1890560       2160 HB151            1 Introduced  2024-11-12  Relating to ho…
 5 1891489       2160 HB152            1 Introduced  2024-11-12  Relating to th…
 6 1891085       2160 HB153            1 Introduced  2024-11-12  Relating to th…
 7 1890274       2160 HB154            1 Introduced  2024-11-12  Relating to Me…
 8 1891737       2160 HB155            1 Introduced  2024-11-12  Relating to th…
 9 1890403       2160 HB156            1 Introduced  2024-11-12  Relating to a …
10 1891235       2160 HB157            1 Introduced  2024-11-12  Relating to th…
# ℹ 3,525 more rows
# ℹ 7 more variables: description <chr>, committee_id <dbl>, committee <lgl>,
#   last_action_date <date>, last_action <chr>, url <chr>, state_link <chr>
…
Rows: 181 Columns: 18
── Column specification ────────────────────────────────────────────────────────
Delimiter: ","
chr (10): name, first_name, middle_name, last_name, suffix, nickname, party,...
dbl  (7): people_id, party_id, role_id, followthemoney_eid, votesmart_id, kn...
lgl  (1): opensecrets_id

ℹ Use `spec()` to retrieve the full column specification for this data.
ℹ Specify the column types or set `show_col_types = FALSE` to quiet this message.

lawmakers

# A tibble: 181 × 18
   people_id name      first_name middle_name last_name suffix nickname party_id
       <dbl> <chr>     <chr>      <chr>       <chr>     <chr>  <chr>       <dbl>
 1      5848 Alma All… Alma       A.          Allen     <NA>   <NA>            1
 2      5850 Carol Al… Carol      <NA>        Alvarado  <NA>   <NA>            1
 3      5851 Rafael A… Rafael     <NA>        Anchia    <NA>   <NA>            1
 4      5862 Angie Bu… Angie      Chen        Button    <NA>   <NA>            2
 5      5874 Tom Crad… Tom        <NA>        Craddick  <NA>   <NA>            2
 6      5875 Charles … Charles    Brandon     Creighton <NA>   Brandon         2
 7      5877 Drew Dar… Drew       <NA>        Darby     <NA>   <NA>            2
 8      5879 Yvonne D… Yvonne     <NA>        Davis     <NA>   <NA>            1
 9      5884 Harold D… Harold     V.          Dutton    Jr.    <NA>            1
10      5899 Charlie … Charlie    <NA>        Geren     <NA>   <NA>            2
# ℹ 171 more rows
# ℹ 10 more variables: party <chr>, role_id <dbl>, role <chr>, district <chr>,
#   followthemoney_eid <dbl>, votesmart_id <dbl>, opensecrets_id <lgl>,
#   ballotpedia <chr>, knowwho_pid <dbl>, committee_id <dbl>

#sponsors associated with each bill 
sponsors <- read_csv("data-raw/sponsors.csv")

Rows: 4037 Columns: 3
── Column specification ────────────────────────────────────────────────────────
Delimiter: ","
dbl (3): bill_id, people_id, position

ℹ Use `spec()` to retrieve the full column specification for this data.
ℹ Specify the column types or set `show_col_types = FALSE` to quiet this message.

sponsors

# A tibble: 4,037 × 3
   bill_id people_id position
     <dbl>     <dbl>    <dbl>
 1 1890233      5850        2
 2 1890233      5875        7
 3 1890233      5921       10
 4 1890233      5933       11
 5 1890233      5949       12
 6 1890233      6029       16
 7 1890233      6032       17
 8 1890233     11013       15
 9 1890233     15077        5
10 1890233     16267        3
# ℹ 4,027 more rows

Cleaning up each table

#bill details 
bills_clean <- bills |> 
  rename(date_filed = status_date) |> 
  select(-session_id, -status, -status_desc, -title, -committee_id, -committee, -last_action_date, -last_action, -url, -state_link) |> 
  filter(date_filed > "2025-01-17")

bills_clean

# A tibble: 680 × 4
   bill_id bill_number date_filed description                                   
     <dbl> <chr>       <date>     <chr>                                         
 1 1934188 HB1         2025-01-22 General Appropriations Bill.                  
 2 1934456 HB1958      2025-01-22 Relating to notice provided by food service e…
 3 1933920 HB1959      2025-01-22 Relating to certain practices of health benef…
 4 1934367 HB1960      2025-01-22 Relating to the designation of a portion of S…
 5 1934377 HB1961      2025-01-22 Relating to abolishing certain county boards …
 6 1934233 HB1962      2025-01-22 Relating to the disposition of rental payment…
 7 1934152 HB1963      2025-01-22 Relating to policies and procedures for addre…
 8 1934248 HB1964      2025-01-22 Relating to equitable relief from the enforce…
 9 1933959 HB1965      2025-01-22 Relating to a study on mental health services…
10 1934447 HB1966      2025-01-22 Relating to a study on the housing needs of y…
# ℹ 670 more rows

#lawmaker details
lawmakers_clean <- lawmakers |> 
  select(people_id, name, party, role, district)

lawmakers_clean

# A tibble: 181 × 5
   people_id name              party role  district
       <dbl> <chr>             <chr> <chr> <chr>   
 1      5848 Alma Allen        D     Rep   HD-131  
 2      5850 Carol Alvarado    D     Sen   SD-006  
 3      5851 Rafael Anchia     D     Rep   HD-103  
 4      5862 Angie Button      R     Rep   HD-112  
 5      5874 Tom Craddick      R     Rep   HD-082  
 6      5875 Charles Creighton R     Sen   SD-004  
 7      5877 Drew Darby        R     Rep   HD-072  
 8      5879 Yvonne Davis      D     Rep   HD-111  
 9      5884 Harold Dutton     D     Rep   HD-142  
10      5899 Charlie Geren     R     Rep   HD-099  
# ℹ 171 more rows
…
